[
    {
        "title" : "Point Tidak Cukup",
        "body" : "Hubungkan media sosial, tonton video, lengkapi profil kamu untuk dapat banyak poin",
        "button" : [
            {
                "name"   : "Ok" ,
                "color"  : "#ec008c",
                "action" : false 
            },
            {
                "name"   : "More Info" ,
                "color"  : "#ec008c",
                "action" : "HelpPoint" 
            }
        ]
    },
    {
        "title" : "Uang Tidak Cukup",
        "body" : "Unggah struk, tonton video, lengkapi profil kamu atau menunggu data kamu di gunakan untuk dapat lebih banyak uang",
        "button" : [
            {
                "name"   : "Ok" ,
                "color"  : "#ec008c",
                "action" : false 
            },
            {
                "name"   : "More Info" ,
                "color"  : "#ec008c",
                "action" : "HelpPoint" 
            }
        ]
    },
    {
        "title" : "Transaksi Berhasil",
        "body" : "Kamu berhasil membeli vocher Garuda  Indonesia untuk :point point",
        "button" : [
            {
                "name"   : "Ok" ,
                "color"  : "#ec008c",
                "action" : false 
            }
        ]
    },
    {
        "title" : "Transaksi Berhasil",
        "body" : "Kamu berhasil membeli vocher Garuda  Indonesia untuk :point point",
        "button" : [
            {
                "name"   : "Batal" ,
                "color"  : "#eee",
                "action" : false 
            },
            {
                "name"   : "Beli" ,
                "color"  : "#ec008c",
                "action" : true 
            }
        ]
    }
]